Data Management Project
…
To answer our research question, we will need data around pollution, GDP per capita and health. To this end, we will be working with databases from the World Health Organization, and the World Bank.

References are listed in the appendix.

DALYs

This aggregated indicator is extracted from the World Health Organization database. It is described as follows : “DALYs for a disease or health condition are the sum of the years of life lost to due to premature mortality (YLLs) and the years lived with a disability (YLDs) due to prevalent cases of the disease or health condition in a population”. We will mostly use the variable cross countries, classified into regions (Africa, Eastern Europe, Asia, North and South America), by sex (male/female), by year (2010 to 2019) and by cause of death (cancer, trachea etc.). This will allow us to evaluate possible external factors, such as armed conflicts, that might have had an impact on specific regions during a specific year.

This dataset will then be compared to pollution to answer our final sub research question : can a country observe long term growth while polluting despite the negative externalities in terms of health ?

Data summary and representation

Data summary per year

# A tibble: 183 × 2
   `DALYs$Country`     median_value
   <chr>                      <dbl>
 1 Afghanistan                851. 
 2 Albania                    169. 
 3 Algeria                    167. 
 4 Angola                     384. 
 5 Antigua and Barbuda         66.5
 6 Argentina                  112. 
 7 Armenia                    220. 
 8 Australia                   24.2
 9 Austria                     48.9
10 Azerbaijan                 416. 
# ℹ 173 more rows
…
It seems values are fairly constant over the nine years considered in our dataset. It seems grouping by countries might be more relevant.

Data summary per country

# A tibble: 183 × 2
   Country             median_value
   <chr>                      <dbl>
 1 Afghanistan                851. 
 2 Albania                    169. 
 3 Algeria                    167. 
 4 Angola                     384. 
 5 Antigua and Barbuda         66.5
 6 Argentina                  112. 
 7 Armenia                    220. 
 8 Australia                   24.2
 9 Austria                     48.9
10 Azerbaijan                 416. 
# ℹ 173 more rows
…
